Inicio
    Variable lado = 0
    Variable base = 0
    Lee base
    Si base > 0 Entonces
        Lee lado
        Si lado > 0 Entonces
            p = 2*lado + base
            Mostrar p
        Sino
            Mostrar No se puede resolver el problema. Datos incorrectos.
        Fin Si
    Sino
        Mostrar No se puede resolver el problema. Datos incorrectos.
    Fin Si
Fin